testdata/F0000CH2.CSV

Record Length,2.500000e+03,,  -0.000041800000,  -0.72000,
Sample Interval,2.000000e-08,,  -0.000041780000,  -0.70400,
Trigger Point,2.090000000000e+03,,  -0.000041760000,  -0.72000,
,,,  -0.000041740000,  -0.71200,
,,,  -0.000041720000,  -0.72800,
,,,  -0.000041700000,  -0.73600,
Source,CH2,,  -0.000041680000,  -0.73600,
Vertical Units,V,,  -0.000041660000,  -0.72800,
Vertical Scale,2.000000e-01,,  -0.000041640000,  -0.73600,
Vertical Offset,3.040000e-01,,  -0.000041620000,  -0.73600,
Horizontal Units,s,,  -0.000041600000,  -0.73600,
Horizontal Scale,5.000000e-06,,  -0.000041580000,  -0.74400,
Pt Fmt,Y,,  -0.000041560000,  -0.75200,
Yzero,0.000000e+00,,  -0.000041540000,  -0.74400,
Probe Atten,1.000000e+00,,  -0.000041520000,  -0.76000,
Model Number,TDS1012B,,  -0.000041500000,  -0.75200,
Serial Number,C055380,,  -0.000041480000,  -0.76000,
Firmware Version,FV:v22.01,,  -0.000041460000,  -0.75200,
,,,-00.000041440000,  -0.76000,
,,,-00.000041420000,  -0.76000,
,,,-00.000041400000,  -0.76800,
,,,-00.000041380000,  -0.76000,
,,,-00.000041360000,  -0.76000,
,,,-00.000041340000,  -0.78400,
,,,-00.000041320000,  -0.76800,
,,,-00.000041300000,  -0.78400,
,,,-00.000041280000,  -0.78400,
,,,-00.000041260000,  -0.79200,
,,,-00.000041240000,  -0.79200,
,,,-00.000041220000,  -0.80000,
,,,-00.000041200000,  -0.79200,
,,,-00.000041180000,  -0.80000,
,,,-00.000041160000,  -0.80000,
,,,-00.000041140000,  -0.81600,
,,,-00.000041120000,  -0.80000,
,,,-00.000041100000,  -0.79200,
,,,-00.000041080000,  -0.79200,
,,,-00.000041060000,  -0.80800,
,,,-00.000041040000,  -0.80000,
,,,-00.000041020000,  -0.80800,
,,,-00.000041000000,  -0.80800,
,,,-00.000040980000,  -0.82400,
,,,-00.000040960000,  -0.81600,
,,,-00.000040940000,  -0.80800,
,,,-00.000040920000,  -0.81600,
,,,-00.000040900000,  -0.81600,
,,,-00.000040880000,  -0.81600,
,,,-00.000040860000,  -0.82400,
,,,-00.000040840000,  -0.82400,
,,,-00.000040820000,  -0.81600,
,,,-00.000040800000,  -0.82400,
,,,-00.000040780000,  -0.82400,
,,,-00.000040760000,  -0.83200,
,,,-00.000040740000,  -0.83200,
,,,-00.000040720000,  -0.83200,
,,,-00.000040700000,  -0.82400,
,,,-00.000040680000,  -0.83200,
,,,-00.000040660000,  -0.83200,
,,,-00.000040640000,  -0.84000,
,,,-00.000040620000,  -0.83200,
,,,-00.000040600000,  -0.83200,
,,,-00.000040580000,  -0.83200,
,,,-00.000040560000,  -0.84000,
,,,-00.000040540000,  -0.84000,
,,,-00.000040520000,  -0.84800,
,,,-00.000040500000,  -0.83200,
,,,-00.000040480000,  -0.84000,
,,,-00.000040460000,  -0.83200,
,,,-00.000040440000,  -0.84000,
,,,-00.000040420000,  -0.83200,
,,,-00.000040400000,  -0.83200,
,,,-00.000040380000,  -0.83200,
,,,-00.000040360000,  -0.84000,
,,,-00.000040340000,  -0.83200,
,,,-00.000040320000,  -0.83200,
,,,-00.000040300000,  -0.84000,
,,,-00.000040280000,  -0.84000,
,,,-00.000040260000,  -0.84000,
,,,-00.000040240000,  -0.84000,
,,,-00.000040220000,  -0.83200,
,,,-00.000040200000,  -0.84800,
,,,-00.000040180000,  -0.84000,
,,,-00.000040160000,  -0.82400,
,,,-00.000040140000,  -0.84000,
,,,-00.000040120000,  -0.84000,
,,,-00.000040100000,  -0.82400,
,,,-00.000040080000,  -0.83200,
,,,-00.000040060000,  -0.83200,
,,,-00.000040040000,  -0.83200,
,,,-00.000040020000,  -0.82400,
,,,-00.000040000000,  -0.83200,
,,,-00.000039980000,  -0.81600,
,,,-00.000039960000,  -0.81600,
,,,-00.000039940000,  -0.82400,
,,,-00.000039920000,  -0.81600,
,,,-00.000039900000,  -0.80000,
,,,-00.000039880000,  -0.80800,
,,,-00.000039860000,  -0.80800,
,,,-00.000039840000,  -0.82400,
,,,-00.000039820000,  -0.80800,
,,,-00.000039800000,  -0.80000,
,,,-00.000039780000,  -0.80000,
,,,-00.000039760000,  -0.80000,
,,,-00.000039740000,  -0.80000,
,,,-00.000039720000,  -0.79200,
,,,-00.000039700000,  -0.79200,
,,,-00.000039680000,  -0.79200,
,,,-00.000039660000,  -0.77600,
,,,-00.000039640000,  -0.78400,
,,,-00.000039620000,  -0.78400,
,,,-00.000039600000,  -0.76800,
,,,-00.000039580000,  -0.76800,
,,,-00.000039560000,  -0.76800,
,,,-00.000039540000,  -0.76800,
,,,-00.000039520000,  -0.75200,
,,,-00.000039500000,  -0.74400,
,,,-00.000039480000,  -0.75200,
,,,-00.000039460000,  -0.74400,
,,,-00.000039440000,  -0.73600,
,,,-00.000039420000,  -0.74400,
,,,-00.000039400000,  -0.73600,
,,,-00.000039380000,  -0.73600,
,,,-00.000039360000,  -0.74400,
,,,-00.000039340000,  -0.72800,
,,,-00.000039320000,  -0.72800,
,,,-00.000039300000,  -0.72000,
,,,-00.000039280000,  -0.71200,
,,,-00.000039260000,  -0.70400,
,,,-00.000039240000,  -0.71200,
,,,-00.000039220000,  -0.69600,
,,,-00.000039200000,  -0.69600,
,,,-00.000039180000,  -0.70400,
,,,-00.000039160000,  -0.69600,
,,,-00.000039140000,  -0.68000,
,,,-00.000039120000,  -0.67200,
,,,-00.000039100000,  -0.67200,
,,,-00.000039080000,  -0.67200,
,,,-00.000039060000,  -0.65600,
,,,-00.000039040000,  -0.65600,
,,,-00.000039020000,  -0.65600,
,,,-00.000039000000,  -0.65600,
,,,-00.000038980000,  -0.64800,
,,,-00.000038960000,  -0.64800,
,,,-00.000038940000,  -0.64000,
,,,-00.000038920000,  -0.63200,
,,,-00.000038900000,  -0.62400,
,,,-00.000038880000,  -0.63200,
,,,-00.000038860000,  -0.62400,
,,,-00.000038840000,  -0.60800,
,,,-00.000038820000,  -0.62400,
,,,-00.000038800000,  -0.60800,
,,,-00.000038780000,  -0.60800,
,,,-00.000038760000,  -0.60000,
,,,-00.000038740000,  -0.60000,
,,,-00.000038720000,  -0.58400,
,,,-00.000038700000,  -0.60000,
,,,-00.000038680000,  -0.58400,
,,,-00.000038660000,  -0.57600,
,,,-00.000038640000,  -0.57600,
,,,-00.000038620000,  -0.57600,
,,,-00.000038600000,  -0.56800,
,,,-00.000038580000,  -0.56800,
,,,-00.000038560000,  -0.56000,
,,,-00.000038540000,  -0.55200,
,,,-00.000038520000,  -0.56000,
,,,-00.000038500000,  -0.56000,
,,,-00.000038480000,  -0.54400,
,,,-00.000038460000,  -0.53600,
,,,-00.000038440000,  -0.53600,
,,,-00.000038420000,  -0.53600,
,,,-00.000038400000,  -0.52800,
,,,-00.000038380000,  -0.52800,
,,,-00.000038360000,  -0.52000,
,,,-00.000038340000,  -0.52000,
,,,-00.000038320000,  -0.52000,
,,,-00.000038300000,  -0.51200,
,,,-00.000038280000,  -0.51200,
,,,-00.000038260000,  -0.51200,
,,,-00.000038240000,  -0.50400,
,,,-00.000038220000,  -0.50400,
,,,-00.000038200000,  -0.49600,
,,,-00.000038180000,  -0.48800,
,,,-00.000038160000,  -0.49600,
,,,-00.000038140000,  -0.48800,
,,,-00.000038120000,  -0.48800,
,,,-00.000038100000,  -0.48000,
,,,-00.000038080000,  -0.48000,
,,,-00.000038060000,  -0.48000,
,,,-00.000038040000,  -0.48000,
,,,-00.000038020000,  -0.47200,
,,,-00.000038000000,  -0.47200,
,,,-00.000037980000,  -0.47200,
,,,-00.000037960000,  -0.47200,
,,,-00.000037940000,  -0.46400,
,,,-00.000037920000,  -0.46400,
,,,-00.000037900000,  -0.44800,
,,,-00.000037880000,  -0.45600,
,,,-00.000037860000,  -0.47200,
,,,-00.000037840000,  -0.45600,
,,,-00.000037820000,  -0.44000,
,,,-00.000037800000,  -0.45600,
,,,-00.000037780000,  -0.44800,
,,,-00.000037760000,  -0.45600,
,,,-00.000037740000,  -0.44000,
,,,-00.000037720000,  -0.44000,
,,,-00.000037700000,  -0.44000,
,,,-00.000037680000,  -0.44000,
,,,-00.000037660000,  -0.44800,
,,,-00.000037640000,  -0.44000,
,,,-00.000037620000,  -0.44000,
,,,-00.000037600000,  -0.45600,
,,,-00.000037580000,  -0.44000,
,,,-00.000037560000,  -0.45600,
,,,-00.000037540000,  -0.44000,
,,,-00.000037520000,  -0.44000,
,,,-00.000037500000,  -0.43200,
,,,-00.000037480000,  -0.43200,
,,,-00.000037460000,  -0.44000,
,,,-00.000037440000,  -0.44800,
,,,-00.000037420000,  -0.44800,
,,,-00.000037400000,  -0.44800,
,,,-00.000037380000,  -0.44800,
,,,-00.000037360000,  -0.44000,
,,,-00.000037340000,  -0.44000,
,,,-00.000037320000,  -0.44800,
,,,-00.000037300000,  -0.44800,
,,,-00.000037280000,  -0.45600,
,,,-00.000037260000,  -0.45600,
,,,-00.000037240000,  -0.44800,
,,,-00.000037220000,  -0.45600,
,,,-00.000037200000,  -0.45600,
,,,-00.000037180000,  -0.45600,
,,,-00.000037160000,  -0.45600,
,,,-00.000037140000,  -0.45600,
,,,-00.000037120000,  -0.45600,
,,,-00.000037100000,  -0.46400,
,,,-00.000037080000,  -0.47200,
,,,-00.000037060000,  -0.46400,
,,,-00.000037040000,  -0.45600,
,,,-00.000037020000,  -0.48000,
,,,-00.000037000000,  -0.46400,
,,,-00.000036980000,  -0.47200,
,,,-00.000036960000,  -0.48000,
,,,-00.000036940000,  -0.48000,
,,,-00.000036920000,  -0.48800,
,,,-00.000036900000,  -0.48800,
,,,-00.000036880000,  -0.49600,
,,,-00.000036860000,  -0.48800,
,,,-00.000036840000,  -0.49600,
,,,-00.000036820000,  -0.50400,
,,,-00.000036800000,  -0.48800,
,,,-00.000036780000,  -0.49600,
,,,-00.000036760000,  -0.50400,
,,,-00.000036740000,  -0.50400,
,,,-00.000036720000,  -0.52000,
,,,-00.000036700000,  -0.51200,
,,,-00.000036680000,  -0.52800,
,,,-00.000036660000,  -0.52000,
,,,-00.000036640000,  -0.51200,
,,,-00.000036620000,  -0.52800,
,,,-00.000036600000,  -0.53600,
,,,-00.000036580000,  -0.53600,
,,,-00.000036560000,  -0.54400,
,,,-00.000036540000,  -0.54400,
,,,-00.000036520000,  -0.54400,
,,,-00.000036500000,  -0.54400,
,,,-00.000036480000,  -0.55200,
,,,-00.000036460000,  -0.56000,
,,,-00.000036440000,  -0.55200,
,,,-00.000036420000,  -0.56800,
,,,-00.000036400000,  -0.57600,
,,,-00.000036380000,  -0.57600,
,,,-00.000036360000,  -0.56800,
,,,-00.000036340000,  -0.58400,
,,,-00.000036320000,  -0.58400,
,,,-00.000036300000,  -0.58400,
,,,-00.000036280000,  -0.58400,
,,,-00.000036260000,  -0.59200,
,,,-00.000036240000,  -0.60000,
,,,-00.000036220000,  -0.60000,
,,,-00.000036200000,  -0.60000,
,,,-00.000036180000,  -0.61600,
,,,-00.000036160000,  -0.62400,
,,,-00.000036140000,  -0.62400,
,,,-00.000036120000,  -0.62400,
,,,-00.000036100000,  -0.63200,
,,,-00.000036080000,  -0.63200,
,,,-00.000036060000,  -0.64000,
,,,-00.000036040000,  -0.63200,
,,,-00.000036020000,  -0.64800,
,,,-00.000036000000,  -0.64800,
,,,-00.000035980000,  -0.65600,
,,,-00.000035960000,  -0.66400,
,,,-00.000035940000,  -0.66400,
,,,-00.000035920000,  -0.66400,
,,,-00.000035900000,  -0.66400,
,,,-00.000035880000,  -0.68000,
,,,-00.000035860000,  -0.68000,
,,,-00.000035840000,  -0.67200,
,,,-00.000035820000,  -0.68000,
,,,-00.000035800000,  -0.68000,
,,,-00.000035780000,  -0.69600,
,,,-00.000035760000,  -0.69600,
,,,-00.000035740000,  -0.68800,
,,,-00.000035720000,  -0.68800,
,,,-00.000035700000,  -0.70400,
,,,-00.000035680000,  -0.71200,
,,,-00.000035660000,  -0.71200,
,,,-00.000035640000,  -0.72000,
,,,-00.000035620000,  -0.72000,
,,,-00.000035600000,  -0.72800,
,,,-00.000035580000,  -0.73600,
,,,-00.000035560000,  -0.72000,
,,,-00.000035540000,  -0.72000,
,,,-00.000035520000,  -0.72800,
,,,-00.000035500000,  -0.72800,
,,,-00.000035480000,  -0.73600,
,,,-00.000035460000,  -0.74400,
,,,-00.000035440000,  -0.74400,
,,,-00.000035420000,  -0.74400,
,,,-00.000035400000,  -0.75200,
,,,-00.000035380000,  -0.76000,
,,,-00.000035360000,  -0.76800,
,,,-00.000035340000,  -0.76000,
,,,-00.000035320000,  -0.76800,
,,,-00.000035300000,  -0.76800,
,,,-00.000035280000,  -0.76800,
,,,-00.000035260000,  -0.76800,
,,,-00.000035240000,  -0.76800,
,,,-00.000035220000,  -0.77600,
,,,-00.000035200000,  -0.78400,
,,,-00.000035180000,  -0.77600,
,,,-00.000035160000,  -0.78400,
,,,-00.000035140000,  -0.78400,
,,,-00.000035120000,  -0.80000,
,,,-00.000035100000,  -0.78400,
,,,-00.000035080000,  -0.79200,
,,,-00.000035060000,  -0.79200,
,,,-00.000035040000,  -0.80000,
,,,-00.000035020000,  -0.79200,
,,,-00.000035000000,  -0.79200,
,,,-00.000034980000,  -0.80000,
,,,-00.000034960000,  -0.80000,
,,,-00.000034940000,  -0.80000,
,,,-00.000034920000,  -0.80000,
,,,-00.000034900000,  -0.80800,
,,,-00.000034880000,  -0.80800,
,,,-00.000034860000,  -0.80800,
,,,-00.000034840000,  -0.80800,
,,,-00.000034820000,  -0.80800,
,,,-00.000034800000,  -0.80800,
,,,-00.000034780000,  -0.81600,
,,,-00.000034760000,  -0.81600,
,,,-00.000034740000,  -0.82400,
,,,-00.000034720000,  -0.81600,
,,,-00.000034700000,  -0.81600,
,,,-00.000034680000,  -0.81600,
,,,-00.000034660000,  -0.80800,
,,,-00.000034640000,  -0.81600,
,,,-00.000034620000,  -0.80800,
,,,-00.000034600000,  -0.82400,
,,,-00.000034580000,  -0.82400,
,,,-00.000034560000,  -0.83200,
,,,-00.000034540000,  -0.82400,
,,,-00.000034520000,  -0.81600,
,,,-00.000034500000,  -0.82400,
,,,-00.000034480000,  -0.82400,
,,,-00.000034460000,  -0.81600,
,,,-00.000034440000,  -0.82400,
,,,-00.000034420000,  -0.81600,
,,,-00.000034400000,  -0.82400,
,,,-00.000034380000,  -0.82400,
,,,-00.000034360000,  -0.82400,
,,,-00.000034340000,  -0.82400,
,,,-00.000034320000,  -0.82400,
,,,-00.000034300000,  -0.83200,
,,,-00.000034280000,  -0.81600,
,,,-00.000034260000,  -0.82400,
,,,-00.000034240000,  -0.81600,
,,,-00.000034220000,  -0.82400,
,,,-00.000034200000,  -0.82400,
,,,-00.000034180000,  -0.82400,
,,,-00.000034160000,  -0.81600,
,,,-00.000034140000,  -0.81600,
,,,-00.000034120000,  -0.80800,
,,,-00.000034100000,  -0.81600,
,,,-00.000034080000,  -0.80800,
,,,-00.000034060000,  -0.80800,
,,,-00.000034040000,  -0.81600,
,,,-00.000034020000,  -0.81600,
,,,-00.000034000000,  -0.80800,
,,,-00.000033980000,  -0.80000,
,,,-00.000033960000,  -0.80800,
,,,-00.000033940000,  -0.80000,
,,,-00.000033920000,  -0.79200,
,,,-00.000033900000,  -0.81600,
,,,-00.000033880000,  -0.80000,
,,,-00.000033860000,  -0.78400,
,,,-00.000033840000,  -0.78400,
,,,-00.000033820000,  -0.78400,
,,,-00.000033800000,  -0.79200,
,,,-00.000033780000,  -0.77600,
,,,-00.000033760000,  -0.77600,
,,,-00.000033740000,  -0.77600,
,,,-00.000033720000,  -0.76800,
,,,-00.000033700000,  -0.77600,
,,,-00.000033680000,  -0.76800,
,,,-00.000033660000,  -0.76000,
,,,-00.000033640000,  -0.76000,
,,,-00.000033620000,  -0.76000,
,,,-00.000033600000,  -0.76800,
,,,-00.000033580000,  -0.75200,
,,,-00.000033560000,  -0.74400,
,,,-00.000033540000,  -0.75200,
,,,-00.000033520000,  -0.75200,
,,,-00.000033500000,  -0.73600,
,,,-00.000033480000,  -0.74400,
,,,-00.000033460000,  -0.73600,
,,,-00.000033440000,  -0.73600,
,,,-00.000033420000,  -0.73600,
,,,-00.000033400000,  -0.72800,
,,,-00.000033380000,  -0.72000,
,,,-00.000033360000,  -0.72000,
,,,-00.000033340000,  -0.71200,
,,,-00.000033320000,  -0.72000,
,,,-00.000033300000,  -0.72000,
,,,-00.000033280000,  -0.70400,
,,,-00.000033260000,  -0.70400,
,,,-00.000033240000,  -0.71200,
,,,-00.000033220000,  -0.71200,
,,,-00.000033200000,  -0.69600,
,,,-00.000033180000,  -0.69600,
,,,-00.000033160000,  -0.68800,
,,,-00.000033140000,  -0.68800,
,,,-00.000033120000,  -0.68000,
,,,-00.000033100000,  -0.68000,
,,,-00.000033080000,  -0.68800,
,,,-00.000033060000,  -0.68000,
,,,-00.000033040000,  -0.67200,
,,,-00.000033020000,  -0.67200,
,,,-00.000033000000,  -0.66400,
,,,-00.000032980000,  -0.66400,
,,,-00.000032960000,  -0.66400,
,,,-00.000032940000,  -0.66400,
,,,-00.000032920000,  -0.66400,
,,,-00.000032900000,  -0.64800,
,,,-00.000032880000,  -0.64800,
,,,-00.000032860000,  -0.64000,
,,,-00.000032840000,  -0.64000,
,,,-00.000032820000,  -0.64000,
,,,-00.000032800000,  -0.63200,
,,,-00.000032780000,  -0.64000,
,,,-00.000032760000,  -0.64000,
,,,-00.000032740000,  -0.64000,
,,,-00.000032720000,  -0.62400,
,,,-00.000032700000,  -0.61600,
,,,-00.000032680000,  -0.61600,
,,,-00.000032660000,  -0.61600,
,,,-00.000032640000,  -0.62400,
,,,-00.000032620000,  -0.61600,
,,,-00.000032600000,  -0.60800,
,,,-00.000032580000,  -0.60800,
,,,-00.000032560000,  -0.60800,
,,,-00.000032540000,  -0.60000,
,,,-00.000032520000,  -0.60000,
,,,-00.000032500000,  -0.60000,
,,,-00.000032480000,  -0.58400,
,,,-00.000032460000,  -0.59200,
,,,-00.000032440000,  -0.59200,
,,,-00.000032420000,  -0.58400,
,,,-00.000032400000,  -0.57600,
,,,-00.000032380000,  -0.58400,
,,,-00.000032360000,  -0.57600,
,,,-00.000032340000,  -0.58400,
,,,-00.000032320000,  -0.57600,
,,,-00.000032300000,  -0.56800,
,,,-00.000032280000,  -0.56800,
,,,-00.000032260000,  -0.56800,
,,,-00.000032240000,  -0.56800,
,,,-00.000032220000,  -0.56000,
,,,-00.000032200000,  -0.56000,
,,,-00.000032180000,  -0.55200,
,,,-00.000032160000,  -0.55200,
,,,-00.000032140000,  -0.55200,
,,,-00.000032120000,  -0.55200,
,,,-00.000032100000,  -0.54400,
,,,-00.000032080000,  -0.54400,
,,,-00.000032060000,  -0.55200,
,,,-00.000032040000,  -0.54400,
,,,-00.000032020000,  -0.53600,
,,,-00.000032000000,  -0.54400,
,,,-00.000031980000,  -0.54400,
,,,-00.000031960000,  -0.54400,
,,,-00.000031940000,  -0.52000,
,,,-00.000031920000,  -0.53600,
,,,-00.000031900000,  -0.54400,
,,,-00.000031880000,  -0.53600,
,,,-00.000031860000,  -0.52800,
,,,-00.000031840000,  -0.52000,
,,,-00.000031820000,  -0.52800,
,,,-00.000031800000,  -0.52000,
,,,-00.000031780000,  -0.52000,
,,,-00.000031760000,  -0.51200,
,,,-00.000031740000,  -0.52000,
,,,-00.000031720000,  -0.51200,
,,,-00.000031700000,  -0.51200,
,,,-00.000031680000,  -0.51200,
,,,-00.000031660000,  -0.51200,
,,,-00.000031640000,  -0.50400,
,,,-00.000031620000,  -0.51200,
,,,-00.000031600000,  -0.49600,
,,,-00.000031580000,  -0.50400,
,,,-00.000031560000,  -0.49600,
,,,-00.000031540000,  -0.50400,
,,,-00.000031520000,  -0.49600,
,,,-00.000031500000,  -0.49600,
,,,-00.000031480000,  -0.49600,
,,,-00.000031460000,  -0.50400,
,,,-00.000031440000,  -0.49600,
,,,-00.000031420000,  -0.49600,
,,,-00.000031400000,  -0.50400,
,,,-00.000031380000,  -0.50400,
,,,-00.000031360000,  -0.49600,
,,,-00.000031340000,  -0.49600,
,,,-00.000031320000,  -0.48800,
,,,-00.000031300000,  -0.48800,
,,,-00.000031280000,  -0.48800,
,,,-00.000031260000,  -0.48800,
,,,-00.000031240000,  -0.49600,
,,,-00.000031220000,  -0.48000,
,,,-00.000031200000,  -0.49600,
,,,-00.000031180000,  -0.48800,
,,,-00.000031160000,  -0.48800,
,,,-00.000031140000,  -0.48000,
,,,-00.000031120000,  -0.48800,
,,,-00.000031100000,  -0.48000,
,,,-00.000031080000,  -0.49600,
,,,-00.000031060000,  -0.49600,
,,,-00.000031040000,  -0.48800,
,,,-00.000031020000,  -0.48800,
,,,-00.000031000000,  -0.48800,
,,,-00.000030980000,  -0.48800,
,,,-00.000030960000,  -0.48800,
,,,-00.000030940000,  -0.49600,
,,,-00.000030920000,  -0.48000,
,,,-00.000030900000,  -0.48800,
,,,-00.000030880000,  -0.49600,
,,,-00.000030860000,  -0.48800,
,,,-00.000030840000,  -0.48800,
,,,-00.000030820000,  -0.48800,
,,,-00.000030800000,  -0.49600,
,,,-00.000030780000,  -0.50400,
,,,-00.000030760000,  -0.48800,
,,,-00.000030740000,  -0.48800,
,,,-00.000030720000,  -0.48800,
,,,-00.000030700000,  -0.48800,
,,,-00.000030680000,  -0.49600,
,,,-00.000030660000,  -0.49600,
,,,-00.000030640000,  -0.49600,
,,,-00.000030620000,  -0.49600,
,,,-00.000030600000,  -0.50400,
,,,-00.000030580000,  -0.49600,
,,,-00.000030560000,  -0.49600,
,,,-00.000030540000,  -0.50400,
,,,-00.000030520000,  -0.50400,
,,,-00.000030500000,  -0.50400,
,,,-00.000030480000,  -0.50400,
,,,-00.000030460000,  -0.50400,
,,,-00.000030440000,  -0.51200,
,,,-00.000030420000,  -0.50400,
,,,-00.000030400000,  -0.51200,
,,,-00.000030380000,  -0.52000,
,,,-00.000030360000,  -0.51200,
,,,-00.000030340000,  -0.51200,
,,,-00.000030320000,  -0.52800,
,,,-00.000030300000,  -0.52000,
,,,-00.000030280000,  -0.52000,
,,,-00.000030260000,  -0.52800,
,,,-00.000030240000,  -0.52800,
,,,-00.000030220000,  -0.53600,
,,,-00.000030200000,  -0.52800,
,,,-00.000030180000,  -0.52800,
,,,-00.000030160000,  -0.52800,
,,,-00.000030140000,  -0.53600,
,,,-00.000030120000,  -0.53600,
,,,-00.000030100000,  -0.53600,
,,,-00.000030080000,  -0.53600,
,,,-00.000030060000,  -0.54400,
,,,-00.000030040000,  -0.55200,
,,,-00.000030020000,  -0.55200,
,,,-00.000030000000,  -0.56000,
,,,-00.000029980000,  -0.56000,
,,,-00.000029960000,  -0.56000,
,,,-00.000029940000,  -0.57600,
,,,-00.000029920000,  -0.56800,
,,,-00.000029900000,  -0.56800,
,,,-00.000029880000,  -0.57600,
,,,-00.000029860000,  -0.57600,
,,,-00.000029840000,  -0.59200,
,,,-00.000029820000,  -0.56800,
,,,-00.000029800000,  -0.58400,
,,,-00.000029780000,  -0.59200,
,,,-00.000029760000,  -0.59200,
,,,-00.000029740000,  -0.59200,
,,,-00.000029720000,  -0.60000,
,,,-00.000029700000,  -0.60800,
,,,-00.000029680000,  -0.60000,
,,,-00.000029660000,  -0.60000,
,,,-00.000029640000,  -0.61600,
,,,-00.000029620000,  -0.61600,
,,,-00.000029600000,  -0.62400,
,,,-00.000029580000,  -0.61600,
,,,-00.000029560000,  -0.61600,
,,,-00.000029540000,  -0.63200,
